@startuml
left to right direction
User << Human >>
:Citizen: as Citizen
:Blockchain Node: as BC  <<Software>>
:User Interface: as GUI  <<Software>>

package "User Interface" {
    (Claim Role) as (claim)
    (Vote ) as (vote)
    (Propose Amendment) as (propose)
    (Use the application) as (Use)
    (Sign Document) as sign
}

package "Back End" {
    (Record Blocks) as (record)
    (Read Records) as (read)
    (Pool Documents) as (pool)
    (Head infos) as head
}

package "Data Layer" {
    (Write to IPFS) as dagput
    (Read from IPFS) as dagget
    (Write File to IPFS) as fileput
    (Read File from IPFS) as fileget
    (Read File from FileSystem) as filer
}

'''' User Interactions
User <|-- Citizen
User -> (claim)
User --> (Use)

Citizen --> (vote)
Citizen --> (propose)

GUI --> (Use)
GUI --> read
GUI --> pool
BC --> pool
BC --> (record)

'''' Internal Interactions
claim --> fileput
vote --> dagput
vote --> sign
sign --> filer : Private Key
propose --> dagput
Use --> dagget
record --> dagput
read --> head
head --> dagget

@enduml